{
  "appId": "app.movilfast.com",
  "appName": "lms-movil",
  "webDir": "dist",
  "bundledWebRuntime": false,
  "plugins":{
    "PushNotifications": {
      "presentationOptions": ["badge", "sound", "alert"]
    }
  }
}
